{
 "kind": "youtube#searchListResponse",
 "etag": "\"OOFf3Zw2jDbxxHsjJ3l8u1U8dz4/dJvZXi3qPHxWBd8W-mVX19mktLI\"",
 "nextPageToken": "CDIQAA",
 "regionCode": "BR",
 "pageInfo": {
  "totalResults": 1000000,
  "resultsPerPage": 50
 },
 "items": [
  {
   "kind": "youtube#searchResult",
   "etag": "\"OOFf3Zw2jDbxxHsjJ3l8u1U8dz4/VhX8XKKhd7Zw7QOlabS2xFQ5eOo\"",
   "id": {
    "kind": "youtube#video",
    "videoId": "v07H75lWdYw"
   },
   "snippet": {
    "publishedAt": "2018-07-05T12:23:53.000Z",
    "channelId": "UCesGAfPJfE-xdHo-DC0ju-g",
    "title": "CARROS e MOTOS com HOMEM ARANHA e SUPER HERÓIS! Desafio de Super Carros e MOTOS na Rampa - IR GAMES",
    "description": "(GTA V MOD) Homem Aranha (Spiderman), Freddy Urso (Five Nights at Freddy's), Homem de Ferro, Batman, Bumblebee (Transformers), Lanterna Verde, ...",
    "thumbnails": {
     "default": {
      "url": "https://i.ytimg.com/vi/v07H75lWdYw/default.jpg",
      "width": 120,
      "height": 90
     },
     "medium": {
      "url": "https://i.ytimg.com/vi/v07H75lWdYw/mqdefault.jpg",
      "width": 320,
      "height": 180
     },
     "high": {
      "url": "https://i.ytimg.com/vi/v07H75lWdYw/hqdefault.jpg",
      "width": 480,
      "height": 360
     }
    },
    "channelTitle": "IR GAMES",
    "liveBroadcastContent": "none"
   }
  },
  {
   "kind": "youtube#searchResult",
   "etag": "\"OOFf3Zw2jDbxxHsjJ3l8u1U8dz4/f9Zck9yTcPzNbsvOy_VqWFOF7kU\"",
   "id": {
    "kind": "youtube#video",
    "videoId": "JYRAITH39XY"
   },
   "snippet": {
    "publishedAt": "2020-01-03T21:16:46.000Z",
    "channelId": "UCHDqEgGhBvyfBFkYBpZI-dQ",
    "title": "Cidade do Carro OFFICIAL LIVE STREAM - Desenhos Animados para Crianças 🚒 🚓 🚑 transmissão ao vivo",
    "description": "Tenha o \"Car City World\", o mais novo aplicativo para os pequenos fãs da Cidade do Carro! Jogue games, aprenda com atividades educativas, assista aos ...",
    "thumbnails": {
     "default": {
      "url": "https://i.ytimg.com/vi/JYRAITH39XY/default_live.jpg",
      "width": 120,
      "height": 90
     },
     "medium": {
      "url": "https://i.ytimg.com/vi/JYRAITH39XY/mqdefault_live.jpg",
      "width": 320,
      "height": 180
     },
     "high": {
      "url": "https://i.ytimg.com/vi/JYRAITH39XY/hqdefault_live.jpg",
      "width": 480,
      "height": 360
     }
    },
    "channelTitle": "Tom o caminhão de reboque na cidade do carro",
    "liveBroadcastContent": "live"
   }
  },
  {
   "kind": "youtube#searchResult",
   "etag": "\"OOFf3Zw2jDbxxHsjJ3l8u1U8dz4/2l1bpmbLeH_-voKT785i2Vi4-Ow\"",
   "id": {
    "kind": "youtube#video",
    "videoId": "SRWzIvBHTA8"
   },
   "snippet": {
    "publishedAt": "2020-01-10T14:00:10.000Z",
    "channelId": "UCHuZmQ0lSW8TG81dVZZh5rw",
    "title": "GTA V Online: PRIMEIRA CORRIDA com NOVO CARRO iMORGON!!! ($2,000,000)",
    "description": "Gameplay de GTA V Online - Nova DLC Heists Casino Diamond! Missões incríveis, novos carros, novas casas e muito mais! Espero que vocês gostem!",
    "thumbnails": {
     "default": {
      "url": "https://i.ytimg.com/vi/SRWzIvBHTA8/default.jpg",
      "width": 120,
      "height": 90
     },
     "medium": {
      "url": "https://i.ytimg.com/vi/SRWzIvBHTA8/mqdefault.jpg",
      "width": 320,
      "height": 180
     },
     "high": {
      "url": "https://i.ytimg.com/vi/SRWzIvBHTA8/hqdefault.jpg",
      "width": 480,
      "height": 360
     }
    },
    "channelTitle": "LipaoGamer",
    "liveBroadcastContent": "none"
   }
  },
  {
   "kind": "youtube#searchResult",
   "etag": "\"OOFf3Zw2jDbxxHsjJ3l8u1U8dz4/XwYr3P6ck3vTM4WzMK6Lbr57BMM\"",
   "id": {
    "kind": "youtube#video",
    "videoId": "bIvDnA7nyPs"
   },
   "snippet": {
    "publishedAt": "2020-01-09T21:30:00.000Z",
    "channelId": "UCHuZmQ0lSW8TG81dVZZh5rw",
    "title": "GTA V Online: NOVO CARRO iMORGON de $2,000,000!!! (ESPORTIVO)",
    "description": "Gameplay de GTA V Online - Nova DLC Heists Casino Diamond! Missões incríveis, novos carros, novas casas e muito mais! Espero que vocês gostem!",
    "thumbnails": {
     "default": {
      "url": "https://i.ytimg.com/vi/bIvDnA7nyPs/default.jpg",
      "width": 120,
      "height": 90
     },
     "medium": {
      "url": "https://i.ytimg.com/vi/bIvDnA7nyPs/mqdefault.jpg",
      "width": 320,
      "height": 180
     },
     "high": {
      "url": "https://i.ytimg.com/vi/bIvDnA7nyPs/hqdefault.jpg",
      "width": 480,
      "height": 360
     }
    },
    "channelTitle": "LipaoGamer",
    "liveBroadcastContent": "none"
   }
  },
  {
   "kind": "youtube#searchResult",
   "etag": "\"OOFf3Zw2jDbxxHsjJ3l8u1U8dz4/k41CEDOJ0eMRpMzOUXTzgfwsonw\"",
   "id": {
    "kind": "youtube#video",
    "videoId": "h3aIGIplOqs"
   },
   "snippet": {
    "publishedAt": "2016-12-01T11:15:22.000Z",
    "channelId": "UCurEgOIDG0H5dQQHUfe9gmA",
    "title": "Carros   filmes de animação  filmes completos dublados 2016 lançamento",
    "description": "Carros filmes de animação filmes completos dublados 2016 lançamento Carros filmes de animação filmes completos dublados 2016 lançamento Carros filmes ...",
    "thumbnails": {
     "default": {
      "url": "https://i.ytimg.com/vi/h3aIGIplOqs/default.jpg",
      "width": 120,
      "height": 90
     },
     "medium": {
      "url": "https://i.ytimg.com/vi/h3aIGIplOqs/mqdefault.jpg",
      "width": 320,
      "height": 180
     },
     "high": {
      "url": "https://i.ytimg.com/vi/h3aIGIplOqs/hqdefault.jpg",
      "width": 480,
      "height": 360
     }
    },
    "channelTitle": "LauraSara4",
    "liveBroadcastContent": "none"
   }
  },
  {
   "kind": "youtube#searchResult",
   "etag": "\"OOFf3Zw2jDbxxHsjJ3l8u1U8dz4/QySj2OK85jf3jlQdYRI5i0a7j70\"",
   "id": {
    "kind": "youtube#video",
    "videoId": "xmYPpMHX7tI"
   },
   "snippet": {
    "publishedAt": "2018-03-23T09:54:11.000Z",
    "channelId": "UC403JE1WPx3fo4rCDqSaHsA",
    "title": "Carros de brinquedo carros de corrida jogo de carro carros jogos jogo vídeo jogo dos carros",
    "description": "Carros de brinquedo carros de corrida jogo de carro carros jogos jogo vídeo jogo dos carros.",
    "thumbnails": {
     "default": {
      "url": "https://i.ytimg.com/vi/xmYPpMHX7tI/default.jpg",
      "width": 120,
      "height": 90
     },
     "medium": {
      "url": "https://i.ytimg.com/vi/xmYPpMHX7tI/mqdefault.jpg",
      "width": 320,
      "height": 180
     },
     "high": {
      "url": "https://i.ytimg.com/vi/xmYPpMHX7tI/hqdefault.jpg",
      "width": 480,
      "height": 360
     }
    },
    "channelTitle": "pocibu",
    "liveBroadcastContent": "none"
   }
  },
  {
   "kind": "youtube#searchResult",
   "etag": "\"OOFf3Zw2jDbxxHsjJ3l8u1U8dz4/EDAwppavvzvmzqqAUlf4Txby_Zc\"",
   "id": {
    "kind": "youtube#video",
    "videoId": "J7LQ-6L9xmA"
   },
   "snippet": {
    "publishedAt": "2019-03-09T11:45:03.000Z",
    "channelId": "UCglLnw0TulUam7ort74dGHg",
    "title": "O NOVO SUPER CARRO é uma LAMBORGHINI. Homem Aranha no Desafio Aéreo na Cidade",
    "description": "GTA V Mods- Homem Aranha (Spiderman), Homem de Ferro, Hulk, Pantera Negra, Deadpool, com SUPER CARROS é uma LAMBORGHINI no desafio na ...",
    "thumbnails": {
     "default": {
      "url": "https://i.ytimg.com/vi/J7LQ-6L9xmA/default.jpg",
      "width": 120,
      "height": 90
     },
     "medium": {
      "url": "https://i.ytimg.com/vi/J7LQ-6L9xmA/mqdefault.jpg",
      "width": 320,
      "height": 180
     },
     "high": {
      "url": "https://i.ytimg.com/vi/J7LQ-6L9xmA/hqdefault.jpg",
      "width": 480,
      "height": 360
     }
    },
    "channelTitle": "DODO-G",
    "liveBroadcastContent": "none"
   }
  },
  {
   "kind": "youtube#searchResult",
   "etag": "\"OOFf3Zw2jDbxxHsjJ3l8u1U8dz4/G9t78cjAk0tFfS1y0jjv5DzlUIk\"",
   "id": {
    "kind": "youtube#video",
    "videoId": "qqjMD7CGvTU"
   },
   "snippet": {
    "publishedAt": "2018-08-07T12:45:45.000Z",
    "channelId": "UCqyWkSrIXhkthyyRDdYkteA",
    "title": "Accidentes Espectaculares (Crash) Juegos de Carros",
    "description": "Juego de Carros - Accidentes Espectaculares (Crash) Otros videos: CARS EL JUEGO DE LA PELICULA EN ESPAÑOL - RAYO MCQUEEN y + CARROS en el ...",
    "thumbnails": {
     "default": {
      "url": "https://i.ytimg.com/vi/qqjMD7CGvTU/default.jpg",
      "width": 120,
      "height": 90
     },
     "medium": {
      "url": "https://i.ytimg.com/vi/qqjMD7CGvTU/mqdefault.jpg",
      "width": 320,
      "height": 180
     },
     "high": {
      "url": "https://i.ytimg.com/vi/qqjMD7CGvTU/hqdefault.jpg",
      "width": 480,
      "height": 360
     }
    },
    "channelTitle": "TheChacal547",
    "liveBroadcastContent": "none"
   }
  },
  {
   "kind": "youtube#searchResult",
   "etag": "\"OOFf3Zw2jDbxxHsjJ3l8u1U8dz4/0wDdoleR6SAY5hzm2o-rppJaFLM\"",
   "id": {
    "kind": "youtube#video",
    "videoId": "PFoxtLRJ7EE"
   },
   "snippet": {
    "publishedAt": "2018-09-12T18:18:58.000Z",
    "channelId": "UCesGAfPJfE-xdHo-DC0ju-g",
    "title": "CARROS Fusca com Homem Aranha e Heróis! Carros Clássicos na Mega Rampa - GTA V Mods - IR GAMES",
    "description": "(GTA V Mods) Homem Aranha (Spiderman), Homem de Ferro, Hulk, Wolverine, Batman, Arlequina, Vespa, Deadpool e Capitão América com CARROS Fusca ...",
    "thumbnails": {
     "default": {
      "url": "https://i.ytimg.com/vi/PFoxtLRJ7EE/default.jpg",
      "width": 120,
      "height": 90
     },
     "medium": {
      "url": "https://i.ytimg.com/vi/PFoxtLRJ7EE/mqdefault.jpg",
      "width": 320,
      "height": 180
     },
     "high": {
      "url": "https://i.ytimg.com/vi/PFoxtLRJ7EE/hqdefault.jpg",
      "width": 480,
      "height": 360
     }
    },
    "channelTitle": "IR GAMES",
    "liveBroadcastContent": "none"
   }
  },
  {
   "kind": "youtube#searchResult",
   "etag": "\"OOFf3Zw2jDbxxHsjJ3l8u1U8dz4/cgLqXdRSd995_pM4i3va0WgUHL0\"",
   "id": {
    "kind": "youtube#video",
    "videoId": "uxgYa58LsZ0"
   },
   "snippet": {
    "publishedAt": "2016-11-27T16:28:05.000Z",
    "channelId": "UCLZrDnHAECEzovzdrl3B66Q",
    "title": "Rolê de carro baixo / jogo de drift com carro rebaixado, leia a descrição!",
    "description": "galera por problemas esse canal pode ser até banido pessoa que se inscreva nesse outro canal abaixo ...",
    "thumbnails": {
     "default": {
      "url": "https://i.ytimg.com/vi/uxgYa58LsZ0/default.jpg",
      "width": 120,
      "height": 90
     },
     "medium": {
      "url": "https://i.ytimg.com/vi/uxgYa58LsZ0/mqdefault.jpg",
      "width": 320,
      "height": 180
     },
     "high": {
      "url": "https://i.ytimg.com/vi/uxgYa58LsZ0/hqdefault.jpg",
      "width": 480,
      "height": 360
     }
    },
    "channelTitle": "Canal Do LANzn",
    "liveBroadcastContent": "none"
   }
  },
  {
   "kind": "youtube#searchResult",
   "etag": "\"OOFf3Zw2jDbxxHsjJ3l8u1U8dz4/2PTBQJS5JW_FZmO43XRk-G7ql9A\"",
   "id": {
    "kind": "youtube#video",
    "videoId": "TOY88p9PWYo"
   },
   "snippet": {
    "publishedAt": "2019-09-21T14:00:05.000Z",
    "channelId": "UC6MtPHJ6axc8iXPmHYLqC-A",
    "title": "CARRO DA LADYBUG",
    "description": "CLASSIFICAÇÃO INDICATIVA LIVRE PARA TODOS OS PÚBLICOS Este video não contém promoção paga. INSTAGRAM ...",
    "thumbnails": {
     "default": {
      "url": "https://i.ytimg.com/vi/TOY88p9PWYo/default.jpg",
      "width": 120,
      "height": 90
     },
     "medium": {
      "url": "https://i.ytimg.com/vi/TOY88p9PWYo/mqdefault.jpg",
      "width": 320,
      "height": 180
     },
     "high": {
      "url": "https://i.ytimg.com/vi/TOY88p9PWYo/hqdefault.jpg",
      "width": 480,
      "height": 360
     }
    },
    "channelTitle": "Fran para meninas",
    "liveBroadcastContent": "none"
   }
  },
  {
   "kind": "youtube#searchResult",
   "etag": "\"OOFf3Zw2jDbxxHsjJ3l8u1U8dz4/IL_lvjzLL03KkPPG8Ro2DsI1OtQ\"",
   "id": {
    "kind": "youtube#video",
    "videoId": "KkZPYyVhSBA"
   },
   "snippet": {
    "publishedAt": "2017-05-13T15:00:02.000Z",
    "channelId": "UCN1i5mDtOx0m_3Z18WsSibA",
    "title": "Chained Car Madness #1 - BeamNG Drive",
    "description": "Hey all, new series today! It's Chained Car Madness Time! If you like this crash compilation, please click on the like button, share the video and comment below ...",
    "thumbnails": {
     "default": {
      "url": "https://i.ytimg.com/vi/KkZPYyVhSBA/default.jpg",
      "width": 120,
      "height": 90
     },
     "medium": {
      "url": "https://i.ytimg.com/vi/KkZPYyVhSBA/mqdefault.jpg",
      "width": 320,
      "height": 180
     },
     "high": {
      "url": "https://i.ytimg.com/vi/KkZPYyVhSBA/hqdefault.jpg",
      "width": 480,
      "height": 360
     }
    },
    "channelTitle": "CrashBoomPunk",
    "liveBroadcastContent": "none"
   }
  },
  {
   "kind": "youtube#searchResult",
   "etag": "\"OOFf3Zw2jDbxxHsjJ3l8u1U8dz4/EJzupUdCVj3KYSzkou1JXgZgByo\"",
   "id": {
    "kind": "youtube#video",
    "videoId": "upIVWjUwrc0"
   },
   "snippet": {
    "publishedAt": "2019-05-03T22:00:03.000Z",
    "channelId": "UC_gV70G_Y51LTa3qhu8KiEA",
    "title": "OS AVENTUREIROS TRANCADOS NO CARRO PRECISAM FUGIR ANTES QUE SEJA TARDE  DEMAIS !",
    "description": "SITE PARA VER O MEU NOVO FILME: Nowonline: https://www.nowonline.com.br/filme/luccas-neto-em-uma-baba-muito-esquisita/413637 YOUTUBE: ...",
    "thumbnails": {
     "default": {
      "url": "https://i.ytimg.com/vi/upIVWjUwrc0/default.jpg",
      "width": 120,
      "height": 90
     },
     "medium": {
      "url": "https://i.ytimg.com/vi/upIVWjUwrc0/mqdefault.jpg",
      "width": 320,
      "height": 180
     },
     "high": {
      "url": "https://i.ytimg.com/vi/upIVWjUwrc0/hqdefault.jpg",
      "width": 480,
      "height": 360
     }
    },
    "channelTitle": "LUCCAS NETO - LUCCAS TOON",
    "liveBroadcastContent": "none"
   }
  },
  {
   "kind": "youtube#searchResult",
   "etag": "\"OOFf3Zw2jDbxxHsjJ3l8u1U8dz4/Hqn4VJpYbZONRhW5FINMTRUS2Uk\"",
   "id": {
    "kind": "youtube#video",
    "videoId": "FqTdBtCJcP8"
   },
   "snippet": {
    "publishedAt": "2019-11-29T11:00:04.000Z",
    "channelId": "UCg1PtLqCSYX8odBuWHP9Ebg",
    "title": "O Super Carro de Bombeiro Salvou a Mimi | Super Carro | Historinhas e Músicas Infantis | BabyBus",
    "description": "Inscreva-se a BabyBus Português - Músicas Infantis e Desenhos ▻ https://www.youtube.com/channel/UCg1PtLqCSYX8odBuWHP9Ebg?sub_confirmation=1 O ...",
    "thumbnails": {
     "default": {
      "url": "https://i.ytimg.com/vi/FqTdBtCJcP8/default.jpg",
      "width": 120,
      "height": 90
     },
     "medium": {
      "url": "https://i.ytimg.com/vi/FqTdBtCJcP8/mqdefault.jpg",
      "width": 320,
      "height": 180
     },
     "high": {
      "url": "https://i.ytimg.com/vi/FqTdBtCJcP8/hqdefault.jpg",
      "width": 480,
      "height": 360
     }
    },
    "channelTitle": "BabyBus Português - Músicas Infantis e Desenhos",
    "liveBroadcastContent": "none"
   }
  },
  {
   "kind": "youtube#searchResult",
   "etag": "\"OOFf3Zw2jDbxxHsjJ3l8u1U8dz4/D7RQdZL2ZF0tmZvfQlEtNobQf70\"",
   "id": {
    "kind": "youtube#video",
    "videoId": "bM5_-PH3IqY"
   },
   "snippet": {
    "publishedAt": "2020-01-09T19:00:07.000Z",
    "channelId": "UCtIQ3UADxw3jGq_ENyzP6JQ",
    "title": "Sonic de carro kkkkkk 😂😂",
    "description": "Tomara que o Saiko recupere o celular dele Curso de jogos: http://bit.ly/FoxyCursoDeGames Segue eu: @TocaDoFoxy Email de contato: ...",
    "thumbnails": {
     "default": {
      "url": "https://i.ytimg.com/vi/bM5_-PH3IqY/default.jpg",
      "width": 120,
      "height": 90
     },
     "medium": {
      "url": "https://i.ytimg.com/vi/bM5_-PH3IqY/mqdefault.jpg",
      "width": 320,
      "height": 180
     },
     "high": {
      "url": "https://i.ytimg.com/vi/bM5_-PH3IqY/hqdefault.jpg",
      "width": 480,
      "height": 360
     }
    },
    "channelTitle": "Toca do Foxy",
    "liveBroadcastContent": "none"
   }
  },
  {
   "kind": "youtube#searchResult",
   "etag": "\"OOFf3Zw2jDbxxHsjJ3l8u1U8dz4/7YhVSavtF-VVvFMTTR1cOoy613Q\"",
   "id": {
    "kind": "youtube#video",
    "videoId": "o4c2YqMBt24"
   },
   "snippet": {
    "publishedAt": "2019-09-03T17:33:54.000Z",
    "channelId": "UCLhlEgi7LOCNsOvTe3NUkuQ",
    "title": "Esmagando Sucos com Carro - Experiencia em Casa",
    "description": "Neste vídeo, você verá o que acontece quando você esmaga sucos. Inscreva-se em mais vídeos como esse e apóie o canal dando um joinha neste vídeo.",
    "thumbnails": {
     "default": {
      "url": "https://i.ytimg.com/vi/o4c2YqMBt24/default.jpg",
      "width": 120,
      "height": 90
     },
     "medium": {
      "url": "https://i.ytimg.com/vi/o4c2YqMBt24/mqdefault.jpg",
      "width": 320,
      "height": 180
     },
     "high": {
      "url": "https://i.ytimg.com/vi/o4c2YqMBt24/hqdefault.jpg",
      "width": 480,
      "height": 360
     }
    },
    "channelTitle": "EXPERIÊNCIA EM CASA - BR",
    "liveBroadcastContent": "none"
   }
  },
  {
   "kind": "youtube#searchResult",
   "etag": "\"OOFf3Zw2jDbxxHsjJ3l8u1U8dz4/Xbc-JCiAf9sxj37YKR9M0PrOUIA\"",
   "id": {
    "kind": "youtube#video",
    "videoId": "6k9n1HVsO18"
   },
   "snippet": {
    "publishedAt": "2018-11-28T00:58:36.000Z",
    "channelId": "UC5MAn_fVyFZZd3FuicGEgBg",
    "title": "Aprende los Colores | Video Educativo | Carros de Juguetes para Niños",
    "description": "Aprende los Colores. Carros de Juguetes para Niños. Video Educativo. Subscribe - https://goo.gl/V6dqDC.",
    "thumbnails": {
     "default": {
      "url": "https://i.ytimg.com/vi/6k9n1HVsO18/default.jpg",
      "width": 120,
      "height": 90
     },
     "medium": {
      "url": "https://i.ytimg.com/vi/6k9n1HVsO18/mqdefault.jpg",
      "width": 320,
      "height": 180
     },
     "high": {
      "url": "https://i.ytimg.com/vi/6k9n1HVsO18/hqdefault.jpg",
      "width": 480,
      "height": 360
     }
    },
    "channelTitle": "Troy Time",
    "liveBroadcastContent": "none"
   }
  },
  {
   "kind": "youtube#searchResult",
   "etag": "\"OOFf3Zw2jDbxxHsjJ3l8u1U8dz4/cSzLqSz1HC3IlPIuss4KXvqKUxY\"",
   "id": {
    "kind": "youtube#video",
    "videoId": "hzhI_svQj2s"
   },
   "snippet": {
    "publishedAt": "2017-10-27T20:00:00.000Z",
    "channelId": "UCrKhB-kOIG4ARPEs2K2ZqdQ",
    "title": "DESTRUÍ UM CARRO DE 3 MILHÕES, LAMBORGHINI AVENTADOR  - BeamNG.Drive",
    "description": "DESTRUÍ UM CARRO DE 3 MILHÕES, LAMBORGHINI AVENTADOR - BeamNG.Drive Se não for inscrito inscreva-se e ative as notificações ! Mods e novidades ...",
    "thumbnails": {
     "default": {
      "url": "https://i.ytimg.com/vi/hzhI_svQj2s/default.jpg",
      "width": 120,
      "height": 90
     },
     "medium": {
      "url": "https://i.ytimg.com/vi/hzhI_svQj2s/mqdefault.jpg",
      "width": 320,
      "height": 180
     },
     "high": {
      "url": "https://i.ytimg.com/vi/hzhI_svQj2s/hqdefault.jpg",
      "width": 480,
      "height": 360
     }
    },
    "channelTitle": "GQ Games",
    "liveBroadcastContent": "none"
   }
  },
  {
   "kind": "youtube#searchResult",
   "etag": "\"OOFf3Zw2jDbxxHsjJ3l8u1U8dz4/_RVv4Az-3iSvuAwn6qNs5nvOh74\"",
   "id": {
    "kind": "youtube#video",
    "videoId": "gNUZfP7Mz-c"
   },
   "snippet": {
    "publishedAt": "2018-05-28T06:00:01.000Z",
    "channelId": "UCE8h4Wvf6HiY3EsnZwThrwg",
    "title": "Juegos de Carros - Juegos de Carros de Carreras - Real Turbo Car Racing 3D",
    "description": "Suscríbete a Nuestro Canal para ver Nuevos Videos cada Semana! Si te gustan los juegos de videos infantiles como éste, Juegos de Carros de Carreras - Real ...",
    "thumbnails": {
     "default": {
      "url": "https://i.ytimg.com/vi/gNUZfP7Mz-c/default.jpg",
      "width": 120,
      "height": 90
     },
     "medium": {
      "url": "https://i.ytimg.com/vi/gNUZfP7Mz-c/mqdefault.jpg",
      "width": 320,
      "height": 180
     },
     "high": {
      "url": "https://i.ytimg.com/vi/gNUZfP7Mz-c/hqdefault.jpg",
      "width": 480,
      "height": 360
     }
    },
    "channelTitle": "Juegos de Carros 360",
    "liveBroadcastContent": "none"
   }
  },
  {
   "kind": "youtube#searchResult",
   "etag": "\"OOFf3Zw2jDbxxHsjJ3l8u1U8dz4/G7MZcg5SXvNvOPRQZvAKBOHQpto\"",
   "id": {
    "kind": "youtube#video",
    "videoId": "1A-cDkC0eD8"
   },
   "snippet": {
    "publishedAt": "2020-01-09T23:09:34.000Z",
    "channelId": "UCrKhB-kOIG4ARPEs2K2ZqdQ",
    "title": "PILOTEI um CARRO futurista! BeamNG.drive",
    "description": "PILOTEI um CARRO futurista! BeamNG.drive Discord: https://discord.gg/KZjve7M Email de contato: gustavoquirino10@hotmail.com DEUS É FIEL.",
    "thumbnails": {
     "default": {
      "url": "https://i.ytimg.com/vi/1A-cDkC0eD8/default.jpg",
      "width": 120,
      "height": 90
     },
     "medium": {
      "url": "https://i.ytimg.com/vi/1A-cDkC0eD8/mqdefault.jpg",
      "width": 320,
      "height": 180
     },
     "high": {
      "url": "https://i.ytimg.com/vi/1A-cDkC0eD8/hqdefault.jpg",
      "width": 480,
      "height": 360
     }
    },
    "channelTitle": "GQ Games",
    "liveBroadcastContent": "none"
   }
  },
  {
   "kind": "youtube#searchResult",
   "etag": "\"OOFf3Zw2jDbxxHsjJ3l8u1U8dz4/Yd9Yr8lxSnb30aY0BA95vL-JnhM\"",
   "id": {
    "kind": "youtube#video",
    "videoId": "eMEPnks2IYM"
   },
   "snippet": {
    "publishedAt": "2018-05-04T20:33:59.000Z",
    "channelId": "UC371icpvZj2oQaocL0i9L-g",
    "title": "MINHA NAMORADA FEZ UM CARRO DE PAPELÃO",
    "description": "INSCREVA-SE NO CANAL | Carro - Namorada - GTA 5 ➞ CARRO de 800 Reais - https://youtu.be/qDr6B7e6NJ8 ➞CANAL da CAROL ...",
    "thumbnails": {
     "default": {
      "url": "https://i.ytimg.com/vi/eMEPnks2IYM/default.jpg",
      "width": 120,
      "height": 90
     },
     "medium": {
      "url": "https://i.ytimg.com/vi/eMEPnks2IYM/mqdefault.jpg",
      "width": 320,
      "height": 180
     },
     "high": {
      "url": "https://i.ytimg.com/vi/eMEPnks2IYM/hqdefault.jpg",
      "width": 480,
      "height": 360
     }
    },
    "channelTitle": "Dudu Moura",
    "liveBroadcastContent": "none"
   }
  },
  {
   "kind": "youtube#searchResult",
   "etag": "\"OOFf3Zw2jDbxxHsjJ3l8u1U8dz4/ocTVy8Nr8kWIaBBDL3-XUJi_NW0\"",
   "id": {
    "kind": "youtube#video",
    "videoId": "ySiPv9rFI4g"
   },
   "snippet": {
    "publishedAt": "2017-02-18T12:00:05.000Z",
    "channelId": "UCyfirAu65XJjRTKL0O9gP7w",
    "title": "Tom la Grúa y el carro de caramelos en Auto City | Dibujos animados para niños",
    "description": "Obtén Car City World, la aplicación definitiva para los pequeños fanáticos de Auto City! Juega, aprende a través de actividades educativas, mira los episodios ...",
    "thumbnails": {
     "default": {
      "url": "https://i.ytimg.com/vi/ySiPv9rFI4g/default.jpg",
      "width": 120,
      "height": 90
     },
     "medium": {
      "url": "https://i.ytimg.com/vi/ySiPv9rFI4g/mqdefault.jpg",
      "width": 320,
      "height": 180
     },
     "high": {
      "url": "https://i.ytimg.com/vi/ySiPv9rFI4g/hqdefault.jpg",
      "width": 480,
      "height": 360
     }
    },
    "channelTitle": "Tom la grúa en Auto City",
    "liveBroadcastContent": "none"
   }
  },
  {
   "kind": "youtube#searchResult",
   "etag": "\"OOFf3Zw2jDbxxHsjJ3l8u1U8dz4/_YW26jTJ8gfcyRcgmsDyqzUsjOg\"",
   "id": {
    "kind": "youtube#video",
    "videoId": "h0pib-oZX5s"
   },
   "snippet": {
    "publishedAt": "2018-12-02T12:41:43.000Z",
    "channelId": "UCqyWkSrIXhkthyyRDdYkteA",
    "title": "Jugando Juegos de Carros",
    "description": "Jugando Juegos de Carros. Bienvenido al nuevo juego de simuladores Impossible Stunt Cars Tracks donde puedes conducir coches carros sorprendentes en ...",
    "thumbnails": {
     "default": {
      "url": "https://i.ytimg.com/vi/h0pib-oZX5s/default.jpg",
      "width": 120,
      "height": 90
     },
     "medium": {
      "url": "https://i.ytimg.com/vi/h0pib-oZX5s/mqdefault.jpg",
      "width": 320,
      "height": 180
     },
     "high": {
      "url": "https://i.ytimg.com/vi/h0pib-oZX5s/hqdefault.jpg",
      "width": 480,
      "height": 360
     }
    },
    "channelTitle": "TheChacal547",
    "liveBroadcastContent": "none"
   }
  },
  {
   "kind": "youtube#searchResult",
   "etag": "\"OOFf3Zw2jDbxxHsjJ3l8u1U8dz4/JSCO2XKga3XC-OYe8vo9Ksf2Z9o\"",
   "id": {
    "kind": "youtube#video",
    "videoId": "eP4IWLYtGoU"
   },
   "snippet": {
    "publishedAt": "2018-04-26T18:12:52.000Z",
    "channelId": "UCKHhA5hN2UohhFDfNXB_cvQ",
    "title": "Fizemos um CARRO ELÉTRICO MOVIDO A PILHAS AA!",
    "description": "Saiba mais sobre as pilhas Super Alcalinas Fusion http://www.rayovac.com.br/superalcalina/ Construímos um carrinho (que leva uma pessoa!!!) elétrico com ...",
    "thumbnails": {
     "default": {
      "url": "https://i.ytimg.com/vi/eP4IWLYtGoU/default.jpg",
      "width": 120,
      "height": 90
     },
     "medium": {
      "url": "https://i.ytimg.com/vi/eP4IWLYtGoU/mqdefault.jpg",
      "width": 320,
      "height": 180
     },
     "high": {
      "url": "https://i.ytimg.com/vi/eP4IWLYtGoU/hqdefault.jpg",
      "width": 480,
      "height": 360
     }
    },
    "channelTitle": "Manual do Mundo",
    "liveBroadcastContent": "none"
   }
  },
  {
   "kind": "youtube#searchResult",
   "etag": "\"OOFf3Zw2jDbxxHsjJ3l8u1U8dz4/t-qCaeRRa45o7LTaJFmmzYk2ylY\"",
   "id": {
    "kind": "youtube#video",
    "videoId": "0mRfmZnAeuU"
   },
   "snippet": {
    "publishedAt": "2020-01-10T00:00:01.000Z",
    "channelId": "UCL09RQNX6dYd1HcrzP4hC-w",
    "title": "Novo Carro Para o Canal &quot;Resgatando Carros&quot;",
    "description": "Eron convida Gregório para um passeio no novo carro do canal.",
    "thumbnails": {
     "default": {
      "url": "https://i.ytimg.com/vi/0mRfmZnAeuU/default.jpg",
      "width": 120,
      "height": 90
     },
     "medium": {
      "url": "https://i.ytimg.com/vi/0mRfmZnAeuU/mqdefault.jpg",
      "width": 320,
      "height": 180
     },
     "high": {
      "url": "https://i.ytimg.com/vi/0mRfmZnAeuU/hqdefault.jpg",
      "width": 480,
      "height": 360
     }
    },
    "channelTitle": "Resgatando Carros",
    "liveBroadcastContent": "none"
   }
  },
  {
   "kind": "youtube#searchResult",
   "etag": "\"OOFf3Zw2jDbxxHsjJ3l8u1U8dz4/UrAMnROWRLjRqr1f2ETElklL6xg\"",
   "id": {
    "kind": "youtube#video",
    "videoId": "bqbWGGQSUH8"
   },
   "snippet": {
    "publishedAt": "2017-07-26T11:00:03.000Z",
    "channelId": "UCqNyxnBgMwKRwclr_BLwu4g",
    "title": "Homem Aranha Desenho Animado Em Portugues - Carros pequenos divertidos no caminhão transportador",
    "description": "Homem Aranha Desenho Animado Em Portugues - Carros pequenos divertidos no caminhão transportador. #homemaranha #desenho #desenhoanimado ...",
    "thumbnails": {
     "default": {
      "url": "https://i.ytimg.com/vi/bqbWGGQSUH8/default.jpg",
      "width": 120,
      "height": 90
     },
     "medium": {
      "url": "https://i.ytimg.com/vi/bqbWGGQSUH8/mqdefault.jpg",
      "width": 320,
      "height": 180
     },
     "high": {
      "url": "https://i.ytimg.com/vi/bqbWGGQSUH8/hqdefault.jpg",
      "width": 480,
      "height": 360
     }
    },
    "channelTitle": "Jony TV",
    "liveBroadcastContent": "none"
   }
  },
  {
   "kind": "youtube#searchResult",
   "etag": "\"OOFf3Zw2jDbxxHsjJ3l8u1U8dz4/P4Hssf4998qqmkuRFGM8o7k5l-g\"",
   "id": {
    "kind": "youtube#video",
    "videoId": "m9MAROXC_c4"
   },
   "snippet": {
    "publishedAt": "2020-01-10T21:30:57.000Z",
    "channelId": "UCB96MmC7nKgxkCKdXmfhVRw",
    "title": "GTA V Online - Novo Carro com DENTES DE TUBARÃO! Overflod Imorgon",
    "description": "Novo Carro do GTA V é o Overflod Imorgon coupe duas portas esportivo que pode ter dentes de tubarão! Playlist com Tudo da DLC Cassino ...",
    "thumbnails": {
     "default": {
      "url": "https://i.ytimg.com/vi/m9MAROXC_c4/default.jpg",
      "width": 120,
      "height": 90
     },
     "medium": {
      "url": "https://i.ytimg.com/vi/m9MAROXC_c4/mqdefault.jpg",
      "width": 320,
      "height": 180
     },
     "high": {
      "url": "https://i.ytimg.com/vi/m9MAROXC_c4/hqdefault.jpg",
      "width": 480,
      "height": 360
     }
    },
    "channelTitle": "Montalvão",
    "liveBroadcastContent": "none"
   }
  },
  {
   "kind": "youtube#searchResult",
   "etag": "\"OOFf3Zw2jDbxxHsjJ3l8u1U8dz4/b-vneAdLumk3Og3vhnohd8P5HBY\"",
   "id": {
    "kind": "youtube#video",
    "videoId": "KkL2WYcTp0s"
   },
   "snippet": {
    "publishedAt": "2020-01-08T14:45:00.000Z",
    "channelId": "UCw1sIHJhvS_M7Kg6baW4JUQ",
    "title": "Monza tubarão e a busca pelo carro de R$1000,00  - Resgate do Carro de Mil Reais - Episódio 4",
    "description": "Novidades de última hora em nosso instagram! @CarroComTudo https://www.instagram.com/carrocomtudo *** Todos os videos do resgate do Celta: ...",
    "thumbnails": {
     "default": {
      "url": "https://i.ytimg.com/vi/KkL2WYcTp0s/default.jpg",
      "width": 120,
      "height": 90
     },
     "medium": {
      "url": "https://i.ytimg.com/vi/KkL2WYcTp0s/mqdefault.jpg",
      "width": 320,
      "height": 180
     },
     "high": {
      "url": "https://i.ytimg.com/vi/KkL2WYcTp0s/hqdefault.jpg",
      "width": 480,
      "height": 360
     }
    },
    "channelTitle": "CARRO COM TUDO",
    "liveBroadcastContent": "none"
   }
  },
  {
   "kind": "youtube#searchResult",
   "etag": "\"OOFf3Zw2jDbxxHsjJ3l8u1U8dz4/oA3zLaudUbTCihnNKe-5xazt4kg\"",
   "id": {
    "kind": "youtube#video",
    "videoId": "rZgkRVD5GpU"
   },
   "snippet": {
    "publishedAt": "2018-12-01T20:46:53.000Z",
    "channelId": "UCqyWkSrIXhkthyyRDdYkteA",
    "title": "Juego de Carros para Niños - Transportador de Coches",
    "description": "Está buscando algo nuevo? Modern Car Transporter Plane 2018 es un juego de simulación 3D, con una gran oportunidad de conducir y aparcar muchos ...",
    "thumbnails": {
     "default": {
      "url": "https://i.ytimg.com/vi/rZgkRVD5GpU/default.jpg",
      "width": 120,
      "height": 90
     },
     "medium": {
      "url": "https://i.ytimg.com/vi/rZgkRVD5GpU/mqdefault.jpg",
      "width": 320,
      "height": 180
     },
     "high": {
      "url": "https://i.ytimg.com/vi/rZgkRVD5GpU/hqdefault.jpg",
      "width": 480,
      "height": 360
     }
    },
    "channelTitle": "TheChacal547",
    "liveBroadcastContent": "none"
   }
  },
  {
   "kind": "youtube#searchResult",
   "etag": "\"OOFf3Zw2jDbxxHsjJ3l8u1U8dz4/O_GAr0eZsl3DYaDZ50PtCm4hNDg\"",
   "id": {
    "kind": "youtube#video",
    "videoId": "qIyWGOAFEbE"
   },
   "snippet": {
    "publishedAt": "2017-10-13T08:08:42.000Z",
    "channelId": "UCr6yjWbA1xgEKd0KgQQVyyA",
    "title": "▶️ Vídeos Incríveis - Carros em Alta Velocidade - Campeonatos de Rally - Parte 2 🚙🚙🚙",
    "description": "Vídeos Incríveis - Carros em Alta Velocidade - Campeonatos de Rally: https://youtu.be/FgyATuotmkQ - https://youtu.be/FgyATuotmkQ ...",
    "thumbnails": {
     "default": {
      "url": "https://i.ytimg.com/vi/qIyWGOAFEbE/default.jpg",
      "width": 120,
      "height": 90
     },
     "medium": {
      "url": "https://i.ytimg.com/vi/qIyWGOAFEbE/mqdefault.jpg",
      "width": 320,
      "height": 180
     },
     "high": {
      "url": "https://i.ytimg.com/vi/qIyWGOAFEbE/hqdefault.jpg",
      "width": 480,
      "height": 360
     }
    },
    "channelTitle": "Super Vídeos",
    "liveBroadcastContent": "none"
   }
  },
  {
   "kind": "youtube#searchResult",
   "etag": "\"OOFf3Zw2jDbxxHsjJ3l8u1U8dz4/4nPU63o5Ev9pcQjcp1CA5xkNytg\"",
   "id": {
    "kind": "youtube#video",
    "videoId": "9bWU1cNpXLY"
   },
   "snippet": {
    "publishedAt": "2018-08-30T13:00:02.000Z",
    "channelId": "UCV306eHqgo0LvBf3Mh36AHg",
    "title": "O LUCCAS TROSLOU MEU CARRO - REACT",
    "description": "VÍDEO ORIGINAL NO CANAL IRMÃOS NETO: https://www.youtube.com/watch?v=4RUvBFJdq_k BAIXE O APP FELIPE NETO NA APP STORE OU NO GOOGLE ...",
    "thumbnails": {
     "default": {
      "url": "https://i.ytimg.com/vi/9bWU1cNpXLY/default.jpg",
      "width": 120,
      "height": 90
     },
     "medium": {
      "url": "https://i.ytimg.com/vi/9bWU1cNpXLY/mqdefault.jpg",
      "width": 320,
      "height": 180
     },
     "high": {
      "url": "https://i.ytimg.com/vi/9bWU1cNpXLY/hqdefault.jpg",
      "width": 480,
      "height": 360
     }
    },
    "channelTitle": "Felipe Neto",
    "liveBroadcastContent": "none"
   }
  },
  {
   "kind": "youtube#searchResult",
   "etag": "\"OOFf3Zw2jDbxxHsjJ3l8u1U8dz4/5ZRbCquhCNO8gpedfAO6k7HbfqE\"",
   "id": {
    "kind": "youtube#video",
    "videoId": "s5WCNRPm2cw"
   },
   "snippet": {
    "publishedAt": "2020-01-05T15:00:08.000Z",
    "channelId": "UCiuZ9qRr3mrykNmWcAPmJ0w",
    "title": "Bolas de surpresa de carro inteiro de Vlad e Nikita",
    "description": "As crianças escolhem um presente de aniversário para bonecas. Pequenas bolas surpresa no carro se transformam em grandes bolas surpresa. Gigante do ...",
    "thumbnails": {
     "default": {
      "url": "https://i.ytimg.com/vi/s5WCNRPm2cw/default.jpg",
      "width": 120,
      "height": 90
     },
     "medium": {
      "url": "https://i.ytimg.com/vi/s5WCNRPm2cw/mqdefault.jpg",
      "width": 320,
      "height": 180
     },
     "high": {
      "url": "https://i.ytimg.com/vi/s5WCNRPm2cw/hqdefault.jpg",
      "width": 480,
      "height": 360
     }
    },
    "channelTitle": "Vlad e Nikita",
    "liveBroadcastContent": "none"
   }
  },
  {
   "kind": "youtube#searchResult",
   "etag": "\"OOFf3Zw2jDbxxHsjJ3l8u1U8dz4/Z1bnIc91qKOcXN0zuAiXcJscTSY\"",
   "id": {
    "kind": "youtube#video",
    "videoId": "FPffE-d5xe8"
   },
   "snippet": {
    "publishedAt": "2016-11-30T09:53:10.000Z",
    "channelId": "UCYbj4915jtV2TuCE7VAaZtQ",
    "title": "Сamión de auxilio - Carritos para niños - Camiónes infantiles - Caricaturas de carros",
    "description": "Сamión de auxilio - Carritos para niños! Camiónes infantiles - Caricaturas de carros! Suscríbete a nuestro canal: https://goo.gl/PhH3Jj Ver el vídeo: ...",
    "thumbnails": {
     "default": {
      "url": "https://i.ytimg.com/vi/FPffE-d5xe8/default.jpg",
      "width": 120,
      "height": 90
     },
     "medium": {
      "url": "https://i.ytimg.com/vi/FPffE-d5xe8/mqdefault.jpg",
      "width": 320,
      "height": 180
     },
     "high": {
      "url": "https://i.ytimg.com/vi/FPffE-d5xe8/hqdefault.jpg",
      "width": 480,
      "height": 360
     }
    },
    "channelTitle": "Carros Inteligentes TV",
    "liveBroadcastContent": "none"
   }
  },
  {
   "kind": "youtube#searchResult",
   "etag": "\"OOFf3Zw2jDbxxHsjJ3l8u1U8dz4/3wyQeJcPsMIWEdRED8CbvjaPjHw\"",
   "id": {
    "kind": "youtube#video",
    "videoId": "YWdwGQ91pEs"
   },
   "snippet": {
    "publishedAt": "2020-01-02T17:30:00.000Z",
    "channelId": "UCHuZmQ0lSW8TG81dVZZh5rw",
    "title": "GTA V Online: NOVO CARRO que ANDA NA ÁGUA!!! (ZHABA de $2,000,000)",
    "description": "Gameplay de GTA V Online - Nova DLC Heists Casino Diamond! Missões incríveis, novos carros, novas casas e muito mais! Espero que vocês gostem!",
    "thumbnails": {
     "default": {
      "url": "https://i.ytimg.com/vi/YWdwGQ91pEs/default.jpg",
      "width": 120,
      "height": 90
     },
     "medium": {
      "url": "https://i.ytimg.com/vi/YWdwGQ91pEs/mqdefault.jpg",
      "width": 320,
      "height": 180
     },
     "high": {
      "url": "https://i.ytimg.com/vi/YWdwGQ91pEs/hqdefault.jpg",
      "width": 480,
      "height": 360
     }
    },
    "channelTitle": "LipaoGamer",
    "liveBroadcastContent": "none"
   }
  },
  {
   "kind": "youtube#searchResult",
   "etag": "\"OOFf3Zw2jDbxxHsjJ3l8u1U8dz4/oBpIZB0vk1dSQTCuDs7LHiGO-pc\"",
   "id": {
    "kind": "youtube#video",
    "videoId": "QglChSoMYHU"
   },
   "snippet": {
    "publishedAt": "2020-01-08T00:00:04.000Z",
    "channelId": "UCHuZmQ0lSW8TG81dVZZh5rw",
    "title": "GTA V Online: PRIMEIRA MEGA RAMPA com NOVO CARRO &quot;ZHABA&quot;!!! $2,000,000",
    "description": "Gameplay de GTA V Online - Nova DLC Heists Casino Diamond! Missões incríveis, novos carros, novas casas e muito mais! Espero que vocês gostem!",
    "thumbnails": {
     "default": {
      "url": "https://i.ytimg.com/vi/QglChSoMYHU/default.jpg",
      "width": 120,
      "height": 90
     },
     "medium": {
      "url": "https://i.ytimg.com/vi/QglChSoMYHU/mqdefault.jpg",
      "width": 320,
      "height": 180
     },
     "high": {
      "url": "https://i.ytimg.com/vi/QglChSoMYHU/hqdefault.jpg",
      "width": 480,
      "height": 360
     }
    },
    "channelTitle": "LipaoGamer",
    "liveBroadcastContent": "none"
   }
  },
  {
   "kind": "youtube#searchResult",
   "etag": "\"OOFf3Zw2jDbxxHsjJ3l8u1U8dz4/0rHE65Z3lf5AGFELGIj4BrXbujQ\"",
   "id": {
    "kind": "youtube#video",
    "videoId": "JOvam_xLDuo"
   },
   "snippet": {
    "publishedAt": "2020-01-03T06:00:03.000Z",
    "channelId": "UCE8h4Wvf6HiY3EsnZwThrwg",
    "title": "Juegos de Carros - Stunt Car - Autos de Carreras",
    "description": "Suscríbete a Nuestro Canal para ver Nuevos Videos cada Semana! Welcome to my Channel, Subscribe for more Videos! Si te gustan los juegos de android de ...",
    "thumbnails": {
     "default": {
      "url": "https://i.ytimg.com/vi/JOvam_xLDuo/default.jpg",
      "width": 120,
      "height": 90
     },
     "medium": {
      "url": "https://i.ytimg.com/vi/JOvam_xLDuo/mqdefault.jpg",
      "width": 320,
      "height": 180
     },
     "high": {
      "url": "https://i.ytimg.com/vi/JOvam_xLDuo/hqdefault.jpg",
      "width": 480,
      "height": 360
     }
    },
    "channelTitle": "Juegos de Carros 360",
    "liveBroadcastContent": "none"
   }
  },
  {
   "kind": "youtube#searchResult",
   "etag": "\"OOFf3Zw2jDbxxHsjJ3l8u1U8dz4/KQCg8oNwpxxCXv56MiR2CHPzd8U\"",
   "id": {
    "kind": "youtube#video",
    "videoId": "hXpwC_U1hjg"
   },
   "snippet": {
    "publishedAt": "2020-01-07T21:30:55.000Z",
    "channelId": "UCRuBopQ2ei22ZgXlOfd5eDQ",
    "title": "POLÊMICA! Que carro usado NÃO comprar.",
    "description": "Existe uma HIGH TORQUE pertinho de você! Leve seu carro e se surpreenda! https://hightorque.com.br/oficinas Conheça nossa loja virtual: ...",
    "thumbnails": {
     "default": {
      "url": "https://i.ytimg.com/vi/hXpwC_U1hjg/default.jpg",
      "width": 120,
      "height": 90
     },
     "medium": {
      "url": "https://i.ytimg.com/vi/hXpwC_U1hjg/mqdefault.jpg",
      "width": 320,
      "height": 180
     },
     "high": {
      "url": "https://i.ytimg.com/vi/hXpwC_U1hjg/hqdefault.jpg",
      "width": 480,
      "height": 360
     }
    },
    "channelTitle": "Canal High Torque",
    "liveBroadcastContent": "none"
   }
  },
  {
   "kind": "youtube#searchResult",
   "etag": "\"OOFf3Zw2jDbxxHsjJ3l8u1U8dz4/Rg8RC0sv560fIlQAHR8x75R4ig8\"",
   "id": {
    "kind": "youtube#video",
    "videoId": "fmjlRajBvZg"
   },
   "snippet": {
    "publishedAt": "2020-01-06T16:09:08.000Z",
    "channelId": "UC1SZZVZ5GXRBGpXorHD9PNw",
    "title": "FINALMENTE TROQUEI AS RODAS DO MEU CARRO !!",
    "description": "DEIXE SEU LIKE! DEIXOU? NÃO? DEIXAAAAAAA! Se inscreva no Canal :D http://goo.gl/5Wfglq COMPRE MEU LIVRO- https://bitly.com/2JQ3jXr ...",
    "thumbnails": {
     "default": {
      "url": "https://i.ytimg.com/vi/fmjlRajBvZg/default.jpg",
      "width": 120,
      "height": 90
     },
     "medium": {
      "url": "https://i.ytimg.com/vi/fmjlRajBvZg/mqdefault.jpg",
      "width": 320,
      "height": 180
     },
     "high": {
      "url": "https://i.ytimg.com/vi/fmjlRajBvZg/hqdefault.jpg",
      "width": 480,
      "height": 360
     }
    },
    "channelTitle": "Afreim",
    "liveBroadcastContent": "none"
   }
  },
  {
   "kind": "youtube#searchResult",
   "etag": "\"OOFf3Zw2jDbxxHsjJ3l8u1U8dz4/HNtDB8rOwRP2_VS88JDTM4I9Y9k\"",
   "id": {
    "kind": "youtube#video",
    "videoId": "TLF71UExmcw"
   },
   "snippet": {
    "publishedAt": "2020-01-04T11:00:08.000Z",
    "channelId": "UC17acKt3tiJ9qXFMo8bSrig",
    "title": "Carros Camiones y Grúas para Niños - Rescate de Coches que Chocan y Caen al Agua - Videos para Niños",
    "description": "Bienvenidos al Canal de Video Juguetes! Si te gusta el video por favor dale \"Me Gusta\" y compártelo con tus amigos! Hoy tendremos muchas aventuras de ...",
    "thumbnails": {
     "default": {
      "url": "https://i.ytimg.com/vi/TLF71UExmcw/default.jpg",
      "width": 120,
      "height": 90
     },
     "medium": {
      "url": "https://i.ytimg.com/vi/TLF71UExmcw/mqdefault.jpg",
      "width": 320,
      "height": 180
     },
     "high": {
      "url": "https://i.ytimg.com/vi/TLF71UExmcw/hqdefault.jpg",
      "width": 480,
      "height": 360
     }
    },
    "channelTitle": "Video Juguetes",
    "liveBroadcastContent": "none"
   }
  },
  {
   "kind": "youtube#searchResult",
   "etag": "\"OOFf3Zw2jDbxxHsjJ3l8u1U8dz4/2guQ9s-Q2cfK5qsVIWVw_drtmQQ\"",
   "id": {
    "kind": "youtube#video",
    "videoId": "aF9M51Ud8I4"
   },
   "snippet": {
    "publishedAt": "2020-01-07T22:15:56.000Z",
    "channelId": "UCTnS4SCiHHzy0LZ0iSyRyvQ",
    "title": "O NOVO CARRO DE LUXO DO LOPERS DEIXOU NOSSA MANSÃO MAIS RICA NO MINECRAFT",
    "description": "Instagram: Lopers: fe_lopera Rafael: rafaumrgp CANAL DE VLOGS: Família Lopers e Rafael : https://www.youtube.com/channel/UC7A-uOJoRnFWiXwJZfzQkrQ ...",
    "thumbnails": {
     "default": {
      "url": "https://i.ytimg.com/vi/aF9M51Ud8I4/default.jpg",
      "width": 120,
      "height": 90
     },
     "medium": {
      "url": "https://i.ytimg.com/vi/aF9M51Ud8I4/mqdefault.jpg",
      "width": 320,
      "height": 180
     },
     "high": {
      "url": "https://i.ytimg.com/vi/aF9M51Ud8I4/hqdefault.jpg",
      "width": 480,
      "height": 360
     }
    },
    "channelTitle": "Lopers e Rafael",
    "liveBroadcastContent": "none"
   }
  },
  {
   "kind": "youtube#searchResult",
   "etag": "\"OOFf3Zw2jDbxxHsjJ3l8u1U8dz4/wBi9nOdczybadoTvrELfsbUQ2cg\"",
   "id": {
    "kind": "youtube#video",
    "videoId": "kRcCvw3UNtY"
   },
   "snippet": {
    "publishedAt": "2020-01-07T19:00:08.000Z",
    "channelId": "UCfyWVInB4nPkZGgiVwGtAiw",
    "title": "NOVO FIAT TORO RANCH DIESEL 2020 EM DETALHES - Falando de Carro",
    "description": "Faça a Sua Análise Gratuita Agora Mesmo e Descubra o Valor Real das Parcelas do Seu Financiamento Sem JUROS Abusivos! Clique Aqui ...",
    "thumbnails": {
     "default": {
      "url": "https://i.ytimg.com/vi/kRcCvw3UNtY/default.jpg",
      "width": 120,
      "height": 90
     },
     "medium": {
      "url": "https://i.ytimg.com/vi/kRcCvw3UNtY/mqdefault.jpg",
      "width": 320,
      "height": 180
     },
     "high": {
      "url": "https://i.ytimg.com/vi/kRcCvw3UNtY/hqdefault.jpg",
      "width": 480,
      "height": 360
     }
    },
    "channelTitle": "Falando de Carro",
    "liveBroadcastContent": "none"
   }
  },
  {
   "kind": "youtube#searchResult",
   "etag": "\"OOFf3Zw2jDbxxHsjJ3l8u1U8dz4/IaBuRGZNnbFFm2BefADladqY22E\"",
   "id": {
    "kind": "youtube#video",
    "videoId": "UihAiSRjFqw"
   },
   "snippet": {
    "publishedAt": "2020-01-06T19:33:50.000Z",
    "channelId": "UCRuBopQ2ei22ZgXlOfd5eDQ",
    "title": "Que carro comprar? #1",
    "description": "https://conteudo.hightorque.com.br/curso-oficina-mecanica Existe uma HIGH TORQUE pertinho de você! Leve seu carro e se surpreenda!",
    "thumbnails": {
     "default": {
      "url": "https://i.ytimg.com/vi/UihAiSRjFqw/default.jpg",
      "width": 120,
      "height": 90
     },
     "medium": {
      "url": "https://i.ytimg.com/vi/UihAiSRjFqw/mqdefault.jpg",
      "width": 320,
      "height": 180
     },
     "high": {
      "url": "https://i.ytimg.com/vi/UihAiSRjFqw/hqdefault.jpg",
      "width": 480,
      "height": 360
     }
    },
    "channelTitle": "Canal High Torque",
    "liveBroadcastContent": "none"
   }
  },
  {
   "kind": "youtube#searchResult",
   "etag": "\"OOFf3Zw2jDbxxHsjJ3l8u1U8dz4/CPCnXLe462hlDB9xJq2TTGKqB64\"",
   "id": {
    "kind": "youtube#video",
    "videoId": "2HDFuiPT7gU"
   },
   "snippet": {
    "publishedAt": "2020-01-08T15:00:29.000Z",
    "channelId": "UCXlMDjwzUnb6UfJsuyJyCtw",
    "title": "CARROS DOS YOUTUBERS 2020 *ATUALIZADO*",
    "description": "Siga nossos patrocinadores no instagram: Franqueira Seguros (@franqueiraseguros) Referência no mercado de seguros automotivos Diamond Motors ...",
    "thumbnails": {
     "default": {
      "url": "https://i.ytimg.com/vi/2HDFuiPT7gU/default.jpg",
      "width": 120,
      "height": 90
     },
     "medium": {
      "url": "https://i.ytimg.com/vi/2HDFuiPT7gU/mqdefault.jpg",
      "width": 320,
      "height": 180
     },
     "high": {
      "url": "https://i.ytimg.com/vi/2HDFuiPT7gU/hqdefault.jpg",
      "width": 480,
      "height": 360
     }
    },
    "channelTitle": "CARVIDEO BR",
    "liveBroadcastContent": "none"
   }
  },
  {
   "kind": "youtube#searchResult",
   "etag": "\"OOFf3Zw2jDbxxHsjJ3l8u1U8dz4/aCzFsjvGteS4TnPXedQDaQQm9Bk\"",
   "id": {
    "kind": "youtube#video",
    "videoId": "t5mvZew7uhk"
   },
   "snippet": {
    "publishedAt": "2020-01-09T19:00:13.000Z",
    "channelId": "UCfyWVInB4nPkZGgiVwGtAiw",
    "title": "NOVO FIAT TORO RANCH 2020 NA TERRA! - Falando de Carro",
    "description": "Confira neste vídeo do Falando de Carro, todos as nossas impressões sobre o novo Fiat Toro 2020 na versão Ranch. O Fiat Toro Ranch 2020 usa um motor 2.0 ...",
    "thumbnails": {
     "default": {
      "url": "https://i.ytimg.com/vi/t5mvZew7uhk/default.jpg",
      "width": 120,
      "height": 90
     },
     "medium": {
      "url": "https://i.ytimg.com/vi/t5mvZew7uhk/mqdefault.jpg",
      "width": 320,
      "height": 180
     },
     "high": {
      "url": "https://i.ytimg.com/vi/t5mvZew7uhk/hqdefault.jpg",
      "width": 480,
      "height": 360
     }
    },
    "channelTitle": "Falando de Carro",
    "liveBroadcastContent": "none"
   }
  },
  {
   "kind": "youtube#searchResult",
   "etag": "\"OOFf3Zw2jDbxxHsjJ3l8u1U8dz4/BSMtv6woeoZHmenP6pE6cKX0P80\"",
   "id": {
    "kind": "youtube#video",
    "videoId": "NtkJZ3yNT1g"
   },
   "snippet": {
    "publishedAt": "2020-01-06T20:59:18.000Z",
    "channelId": "UCMk1wBIsHmalYeE16GkD6bg",
    "title": "Avaliação Gurgel BR 800SL  - o notável carro brasileiro!",
    "description": "O pequeno GRANDE carro nacional, eis o Gurgel BR800 SL Dotado de motor de dois cilindros e 0.8 de potência, o Gurgel BR800 coleciona detalhes muito ...",
    "thumbnails": {
     "default": {
      "url": "https://i.ytimg.com/vi/NtkJZ3yNT1g/default.jpg",
      "width": 120,
      "height": 90
     },
     "medium": {
      "url": "https://i.ytimg.com/vi/NtkJZ3yNT1g/mqdefault.jpg",
      "width": 320,
      "height": 180
     },
     "high": {
      "url": "https://i.ytimg.com/vi/NtkJZ3yNT1g/hqdefault.jpg",
      "width": 480,
      "height": 360
     }
    },
    "channelTitle": "Carro Chefe",
    "liveBroadcastContent": "none"
   }
  },
  {
   "kind": "youtube#searchResult",
   "etag": "\"OOFf3Zw2jDbxxHsjJ3l8u1U8dz4/QDNrwJGKzwWiTo5o70yZZSqWIwY\"",
   "id": {
    "kind": "youtube#video",
    "videoId": "wlY-CFMBOLI"
   },
   "snippet": {
    "publishedAt": "2020-01-07T21:00:10.000Z",
    "channelId": "UCw9XbJxYD920ZU9sIJ00WFA",
    "title": "PINTEI O CARRO TODO EM CASA EM 5 DIAS - FIAT PALIO FIRE - EPISÓDIO 2",
    "description": "Neste vídeo vocês vão acompanhar todo o processo de preparação e pintura realizado neste Fiat Palio Fire 2002. Contato: Instagram: @projectcarbrazil Email: ...",
    "thumbnails": {
     "default": {
      "url": "https://i.ytimg.com/vi/wlY-CFMBOLI/default.jpg",
      "width": 120,
      "height": 90
     },
     "medium": {
      "url": "https://i.ytimg.com/vi/wlY-CFMBOLI/mqdefault.jpg",
      "width": 320,
      "height": 180
     },
     "high": {
      "url": "https://i.ytimg.com/vi/wlY-CFMBOLI/hqdefault.jpg",
      "width": 480,
      "height": 360
     }
    },
    "channelTitle": "Project Car Brasil",
    "liveBroadcastContent": "none"
   }
  },
  {
   "kind": "youtube#searchResult",
   "etag": "\"OOFf3Zw2jDbxxHsjJ3l8u1U8dz4/vJeuIjxahVt1CMhA0OdNgPMa3Kk\"",
   "id": {
    "kind": "youtube#video",
    "videoId": "ww4x2zB-b-A"
   },
   "snippet": {
    "publishedAt": "2018-05-27T15:00:43.000Z",
    "channelId": "UCcbxDsqawxQnFHkLWXleo4A",
    "title": "NOVO! Aprenda as Cores com Carros Dublado – Melhor Momentos #23 | Vídeo Educativo para Crianças!",
    "description": "NOVO! Aprenda as Cores com Carros Dublado – Melhor Momentos #23 – Vídeo Educativo para Crianças! ▻ OBRIGADO PELA SUA OBSERVAÇÃO!",
    "thumbnails": {
     "default": {
      "url": "https://i.ytimg.com/vi/ww4x2zB-b-A/default.jpg",
      "width": 120,
      "height": 90
     },
     "medium": {
      "url": "https://i.ytimg.com/vi/ww4x2zB-b-A/mqdefault.jpg",
      "width": 320,
      "height": 180
     },
     "high": {
      "url": "https://i.ytimg.com/vi/ww4x2zB-b-A/hqdefault.jpg",
      "width": 480,
      "height": 360
     }
    },
    "channelTitle": "NOVO! Aprenda as Cores Crianças",
    "liveBroadcastContent": "none"
   }
  },
  {
   "kind": "youtube#searchResult",
   "etag": "\"OOFf3Zw2jDbxxHsjJ3l8u1U8dz4/qiTm0s_Wtxkpg4ZMYa-ZTcV4sIY\"",
   "id": {
    "kind": "youtube#video",
    "videoId": "JQHIZYnFY9U"
   },
   "snippet": {
    "publishedAt": "2019-06-06T09:00:00.000Z",
    "channelId": "UCWw0D_836ql0q-6XoNydSWg",
    "title": "Aprende los Colores | Video Educativo | Monstruo Vehiculos de calle VS Carro de juguetes para ninos",
    "description": "Hola amigo! Bienvenido a ARCO IRIS TV ~ Hoy, los amigos de los carros de juguete de McQueen vinieron a llamar amigos de carros de juguete! Estas jugando ...",
    "thumbnails": {
     "default": {
      "url": "https://i.ytimg.com/vi/JQHIZYnFY9U/default.jpg",
      "width": 120,
      "height": 90
     },
     "medium": {
      "url": "https://i.ytimg.com/vi/JQHIZYnFY9U/mqdefault.jpg",
      "width": 320,
      "height": 180
     },
     "high": {
      "url": "https://i.ytimg.com/vi/JQHIZYnFY9U/hqdefault.jpg",
      "width": 480,
      "height": 360
     }
    },
    "channelTitle": "ARCO IRIS TV",
    "liveBroadcastContent": "none"
   }
  },
  {
   "kind": "youtube#searchResult",
   "etag": "\"OOFf3Zw2jDbxxHsjJ3l8u1U8dz4/77ii8DZIY1mhc_9ZeLYZRxcPx0Y\"",
   "id": {
    "kind": "youtube#video",
    "videoId": "dSR8myPwUCw"
   },
   "snippet": {
    "publishedAt": "2016-05-26T19:43:59.000Z",
    "channelId": "UCV4xOVpbcV8SdueDCOxLXtQ",
    "title": "EL CARRO DE FERNANFLOO !! - GTA V",
    "description": "SUSCRIBETE es GRATIS → http://goo.gl/lfsQnc TIENDA OFICIAL!! → http://fernanfloo.tgn.tv Mis redes sociales: Facebook ...",
    "thumbnails": {
     "default": {
      "url": "https://i.ytimg.com/vi/dSR8myPwUCw/default.jpg",
      "width": 120,
      "height": 90
     },
     "medium": {
      "url": "https://i.ytimg.com/vi/dSR8myPwUCw/mqdefault.jpg",
      "width": 320,
      "height": 180
     },
     "high": {
      "url": "https://i.ytimg.com/vi/dSR8myPwUCw/hqdefault.jpg",
      "width": 480,
      "height": 360
     }
    },
    "channelTitle": "Fernanfloo",
    "liveBroadcastContent": "none"
   }
  },
  {
   "kind": "youtube#searchResult",
   "etag": "\"OOFf3Zw2jDbxxHsjJ3l8u1U8dz4/GkHcB3Q9QlxLXxV-AqUEyj4XuII\"",
   "id": {
    "kind": "youtube#video",
    "videoId": "4Wlb0havpIY"
   },
   "snippet": {
    "publishedAt": "2020-01-09T20:00:00.000Z",
    "channelId": "UCOfYJlCcmljYXGbZ3XLpOYw",
    "title": "VISION-S: o carro-conceito elétrico e autônomo da SONY",
    "description": "Ei, gente! Quem curtiu o vídeo, compartilhe o link com os amigos, please! Isso ajuda muito! Até a próxima! ▪️INSCREVA-SE no canal e ATIVE as notificações ...",
    "thumbnails": {
     "default": {
      "url": "https://i.ytimg.com/vi/4Wlb0havpIY/default.jpg",
      "width": 120,
      "height": 90
     },
     "medium": {
      "url": "https://i.ytimg.com/vi/4Wlb0havpIY/mqdefault.jpg",
      "width": 320,
      "height": 180
     },
     "high": {
      "url": "https://i.ytimg.com/vi/4Wlb0havpIY/hqdefault.jpg",
      "width": 480,
      "height": 360
     }
    },
    "channelTitle": "Estefânia",
    "liveBroadcastContent": "none"
   }
  }
 ]
}